UsoMyca1/simulation/qsim/Usomyca1.msim.vcd
$comment
	File created using the following command:
		vcd file Usomyca1.msim.vcd -direction
$end
$date
	Thu Aug 28 15:18:12 2014
$end
$version
	ModelSim Version 10.1e
$end
$timescale
	1ps
$end
$scope module mux_vlg_vec_tst $end
$var reg 6 ! i [5:0] $end
$var reg 3 " s [2:0] $end
$var wire 1 # z $end
$var wire 1 $ sampler $end
$scope module i1 $end
$var wire 1 % gnd $end
$var wire 1 & vcc $end
$var wire 1 ' unknown $end
$var tri1 1 ( devclrn $end
$var tri1 1 ) devpor $end
$var tri1 1 * devoe $end
$var wire 1 + z~output_o $end
$var wire 1 , i[1]~input_o $end
$var wire 1 - s[1]~input_o $end
$var wire 1 . i[0]~input_o $end
$var wire 1 / s[0]~input_o $end
$var wire 1 0 Mux0~1_combout $end
$var wire 1 1 i[2]~input_o $end
$var wire 1 2 i[3]~input_o $end
$var wire 1 3 Mux0~2_combout $end
$var wire 1 4 s[2]~input_o $end
$var wire 1 5 i[5]~input_o $end
$var wire 1 6 i[4]~input_o $end
$var wire 1 7 Mux0~0_combout $end
$var wire 1 8 Mux0~3_combout $end
$upscope $end
$upscope $end
$enddefinitions $end
#0
$dumpvars
b0 !
b0 "
0#
x$
0%
1&
x'
1(
1)
1*
0+
0,
0-
0.
0/
00
01
02
03
04
05
06
07
08
$end
#20000
b1 !
1.
0$
10
13
18
1+
1#
#40000
b11 !
b10 !
0.
1,
1$
00
03
08
0+
0#
#60000
b11 !
1.
0$
10
13
18
1+
1#
#80000
b111 !
b101 !
b100 !
0.
0,
11
1$
00
03
08
0+
0#
#100000
b1 "
b101 !
1.
1/
0$
#120000
b111 !
b110 !
0.
1,
1$
10
13
18
1+
1#
#140000
b111 !
1.
0$
#160000
b1111 !
b1011 !
b1001 !
b1000 !
0.
0,
01
12
1$
00
03
08
0+
0#
#180000
b1001 !
1.
0$
#200000
b11 "
b10 "
b1011 !
b1010 !
0.
1,
0/
1-
1$
#220000
b1011 !
1.
0$
#240000
b1111 !
b1101 !
b1100 !
0.
0,
11
1$
13
18
1+
1#
#260000
b1101 !
1.
0$
#280000
b1111 !
b1110 !
0.
1,
1$
#300000
b11 "
b1111 !
1.
1/
0$
10
#320000
b11111 !
b10111 !
b10011 !
b10001 !
b10000 !
0.
0,
01
02
16
1$
03
08
0+
0#
#340000
b10001 !
1.
0$
#360000
b10011 !
b10010 !
0.
1,
1$
#380000
b10011 !
1.
0$
#400000
b111 "
b101 "
b100 "
b10111 !
b10101 !
b10100 !
0.
0,
11
0/
0-
14
1$
00
13
17
03
18
1+
1#
#420000
b10101 !
1.
0$
10
13
#440000
b10111 !
b10110 !
0.
1,
1$
00
03
#460000
b10111 !
1.
0$
10
13
#480000
b11111 !
b11011 !
b11001 !
b11000 !
0.
0,
01
12
1$
00
03
#500000
b101 "
b11001 !
1.
1/
0$
07
08
0+
0#
#520000
b11011 !
b11010 !
0.
1,
1$
10
13
#540000
b11011 !
1.
0$
#560000
b11111 !
b11101 !
b11100 !
0.
0,
11
1$
00
03
#580000
b11101 !
1.
0$
#600000
b111 "
b110 "
b11111 !
b11110 !
0.
1,
0/
1-
1$
13
#620000
b11111 !
1.
0$
#640000
b111111 !
b101111 !
b100111 !
b100011 !
b100001 !
b100000 !
0.
0,
01
02
06
15
1$
03
#660000
b100001 !
1.
0$
#680000
b100011 !
b100010 !
0.
1,
1$
#700000
b111 "
b100011 !
1.
1/
0$
10
#720000
b100111 !
b100101 !
b100100 !
0.
0,
11
1$
#740000
b100101 !
1.
0$
#760000
b100111 !
b100110 !
0.
1,
1$
#780000
b100111 !
1.
0$
#800000
b11 "
b1 "
b101111 !
b0 "
b101011 !
b101001 !
b101000 !
0.
0,
01
12
0/
0-
04
1$
00
13
03
18
1+
1#
08
0+
0#
#820000
b101001 !
1.
0$
10
13
18
1+
1#
#840000
b101011 !
b101010 !
0.
1,
1$
00
03
08
0+
0#
#860000
b101011 !
1.
0$
10
13
18
1+
1#
#880000
b101111 !
b101101 !
b101100 !
0.
0,
11
1$
00
03
08
0+
0#
#900000
b1 "
b101101 !
1.
1/
0$
17
#920000
b101111 !
b101110 !
0.
1,
1$
10
13
18
1+
1#
#940000
b101111 !
1.
0$
#960000
b111111 !
b110111 !
b110011 !
b110001 !
b110000 !
0.
0,
01
02
16
1$
00
03
08
0+
0#
#980000
b110001 !
1.
0$
