test/simulation/qsim/test.msim.vcd
$comment
	File created using the following command:
		vcd file test.msim.vcd -direction
$end
$date
	Mon Sep 01 17:59:00 2014
$end
$version
	ModelSim Version 10.1e
$end
$timescale
	1ps
$end
$scope module mux_vlg_vec_tst $end
$var reg 6 ! i [5:0] $end
$var reg 3 " s [2:0] $end
$var wire 1 # z $end
$var wire 1 $ sampler $end
$scope module i1 $end
$var wire 1 % gnd $end
$var wire 1 & vcc $end
$var wire 1 ' unknown $end
$var tri1 1 ( devclrn $end
$var tri1 1 ) devpor $end
$var tri1 1 * devoe $end
$var wire 1 + z~output_o $end
$var wire 1 , i[1]~input_o $end
$var wire 1 - s[1]~input_o $end
$var wire 1 . i[0]~input_o $end
$var wire 1 / s[0]~input_o $end
$var wire 1 0 Mux0~1_combout $end
$var wire 1 1 i[2]~input_o $end
$var wire 1 2 i[3]~input_o $end
$var wire 1 3 Mux0~2_combout $end
$var wire 1 4 s[2]~input_o $end
$var wire 1 5 i[5]~input_o $end
$var wire 1 6 i[4]~input_o $end
$var wire 1 7 Mux0~0_combout $end
$var wire 1 8 Mux0~3_combout $end
$upscope $end
$upscope $end
$enddefinitions $end
#0
$dumpvars
b0 !
b0 "
0#
x$
0%
1&
x'
1(
1)
1*
0+
0,
0-
0.
0/
00
01
02
03
04
05
06
07
08
$end
#10000
b1 !
1.
0$
10
13
18
1+
1#
#20000
b11 !
b10 !
0.
1,
1$
00
03
08
0+
0#
#30000
b11 !
1.
0$
10
13
18
1+
1#
#40000
b111 !
b101 !
b100 !
0.
0,
11
1$
00
03
08
0+
0#
#50000
b101 !
1.
0$
10
13
18
1+
1#
#60000
b111 !
b110 !
0.
1,
1$
00
03
08
0+
0#
#70000
b111 !
1.
0$
10
13
18
1+
1#
#80000
b1111 !
b1011 !
b1001 !
b1000 !
0.
0,
01
12
1$
00
03
08
0+
0#
#90000
b1001 !
1.
0$
10
13
18
1+
1#
#100000
b1 "
b1011 !
b1010 !
0.
1,
1/
1$
#110000
b1011 !
1.
0$
#120000
b1111 !
b1101 !
b1100 !
0.
0,
11
1$
00
03
08
0+
0#
#130000
b1101 !
1.
0$
#140000
b1111 !
b1110 !
0.
1,
1$
10
13
18
1+
1#
#150000
b1111 !
1.
0$
#160000
b11111 !
b10111 !
b10011 !
b10001 !
b10000 !
0.
0,
01
02
16
1$
00
03
08
0+
0#
#170000
b10001 !
1.
0$
#180000
b10011 !
b10010 !
0.
1,
1$
10
13
18
1+
1#
#190000
b10011 !
1.
0$
#200000
b11 "
b10 "
b10111 !
b10101 !
b10100 !
0.
0,
11
0/
1-
1$
00
03
13
08
0+
0#
18
1+
1#
#210000
b10101 !
1.
0$
#220000
b10111 !
b10110 !
0.
1,
1$
#230000
b10111 !
1.
0$
#240000
b11111 !
b11011 !
b11001 !
b11000 !
0.
0,
01
12
1$
03
08
0+
0#
#250000
b11001 !
1.
0$
#260000
b11011 !
b11010 !
0.
1,
1$
#270000
b11011 !
1.
0$
#280000
b11111 !
b11101 !
b11100 !
0.
0,
11
1$
13
18
1+
1#
#290000
b11101 !
1.
0$
#300000
b11 "
b11111 !
b11110 !
0.
1,
1/
1$
10
#310000
b11111 !
1.
0$
#320000
b111111 !
b101111 !
b100111 !
b100011 !
b100001 !
b100000 !
0.
0,
01
02
06
15
1$
03
08
0+
0#
#330000
b100001 !
1.
0$
#340000
b100011 !
b100010 !
0.
1,
1$
#350000
b100011 !
1.
0$
#360000
b100111 !
b100101 !
b100100 !
0.
0,
11
1$
#370000
b100101 !
1.
0$
#380000
b100111 !
b100110 !
0.
1,
1$
#390000
b100111 !
1.
0$
#400000
b111 "
b101 "
b100 "
b101111 !
b101011 !
b101001 !
b101000 !
0.
0,
01
12
0/
0-
14
1$
00
13
03
#410000
b101001 !
1.
0$
10
13
#420000
b101011 !
b101010 !
0.
1,
1$
00
03
#430000
b101011 !
1.
0$
10
13
#440000
b101111 !
b101101 !
b101100 !
0.
0,
11
1$
00
03
#450000
b101101 !
1.
0$
10
13
#460000
b101111 !
b101110 !
0.
1,
1$
00
03
#470000
b101111 !
1.
0$
10
13
#480000
b111111 !
b110111 !
b110011 !
b110001 !
b110000 !
0.
0,
01
02
16
1$
00
17
03
18
1+
1#
#490000
b110001 !
1.
0$
10
13
#500000
b101 "
b110011 !
b110010 !
0.
1,
1/
1$
#510000
b110011 !
1.
0$
#520000
b110111 !
b110101 !
b110100 !
0.
0,
11
1$
00
03
#530000
b110101 !
1.
0$
#540000
b110111 !
b110110 !
0.
1,
1$
10
13
#550000
b110111 !
1.
0$
#560000
b111111 !
b111011 !
b111001 !
b111000 !
0.
0,
01
12
1$
00
03
#570000
b111001 !
1.
0$
#580000
b111011 !
b111010 !
0.
1,
1$
10
13
#590000
b111011 !
1.
0$
#600000
b111 "
b110 "
b111111 !
b111101 !
b111100 !
0.
0,
11
0/
1-
1$
00
07
08
0+
0#
#610000
b111101 !
1.
0$
#620000
b111111 !
b111110 !
0.
1,
1$
#630000
b111111 !
1.
0$
#640000
b11111 !
b1111 !
b111 !
b11 !
b1 !
b0 !
0.
0,
01
02
06
05
1$
03
#650000
b1 !
1.
0$
#660000
b11 !
b10 !
0.
1,
1$
#670000
b11 !
1.
0$
#680000
b111 !
b101 !
b100 !
0.
0,
11
1$
13
#690000
b101 !
1.
0$
#700000
b111 "
b111 !
b110 !
0.
1,
1/
1$
10
03
#710000
b111 !
1.
0$
#720000
b1111 !
b1011 !
b1001 !
b1000 !
0.
0,
01
12
1$
13
#730000
b1001 !
1.
0$
#740000
b1011 !
b1010 !
0.
1,
1$
#750000
b1011 !
1.
0$
#760000
b1111 !
b1101 !
b1100 !
0.
0,
11
1$
#770000
b1101 !
1.
0$
#780000
b1111 !
b1110 !
0.
1,
1$
#790000
b1111 !
1.
0$
#800000
b11 "
b1 "
b11111 !
b0 "
b10111 !
b10011 !
b10001 !
b10000 !
0.
0,
01
02
16
0/
0-
04
1$
00
17
18
03
1+
1#
08
0+
0#
#810000
b10001 !
1.
0$
10
13
18
1+
1#
#820000
b10011 !
b10010 !
0.
1,
1$
00
03
08
0+
0#
#830000
b10011 !
1.
0$
10
13
18
1+
1#
#840000
b10111 !
b10101 !
b10100 !
0.
0,
11
1$
00
03
08
0+
0#
#850000
b10101 !
1.
0$
10
13
18
1+
1#
#860000
b10111 !
b10110 !
0.
1,
1$
00
03
08
0+
0#
#870000
b10111 !
1.
0$
10
13
18
1+
1#
#880000
b11111 !
b11011 !
b11001 !
b11000 !
0.
0,
01
12
1$
00
03
08
0+
0#
#890000
b11001 !
1.
0$
10
13
18
1+
1#
#900000
b1 "
b11011 !
b11010 !
0.
1,
1/
1$
07
#910000
b11011 !
1.
0$
#920000
b11111 !
b11101 !
b11100 !
0.
0,
11
1$
00
03
08
0+
0#
#930000
b11101 !
1.
0$
#940000
b11111 !
b11110 !
0.
1,
1$
10
13
18
1+
1#
#950000
b11111 !
1.
0$
#960000
b111111 !
b101111 !
b100111 !
b100011 !
b100001 !
b100000 !
0.
0,
01
02
06
15
1$
00
17
03
08
0+
0#
#970000
b100001 !
1.
0$
#980000
b100011 !
b100010 !
0.
1,
1$
10
13
18
1+
1#
#990000
b100011 !
1.
0$
