myca1/simulation/qsim/myca1.msim.vcd
$comment
	File created using the following command:
		vcd file myca1.msim.vcd -direction
$end
$date
	Thu Sep 04 20:07:30 2014
$end
$version
	ModelSim Version 10.1e
$end
$timescale
	1ps
$end
$scope module myca1_vlg_vec_tst $end
$var reg 1 ! ck $end
$var reg 4 " dir [3:0] $end
$var reg 3 # opc [2:0] $end
$var reg 1 $ x $end
$var wire 1 % pc [3] $end
$var wire 1 & pc [2] $end
$var wire 1 ' pc [1] $end
$var wire 1 ( pc [0] $end
$var wire 1 ) sampler $end
$scope module i1 $end
$var wire 1 * gnd $end
$var wire 1 + vcc $end
$var wire 1 , unknown $end
$var tri1 1 - devclrn $end
$var tri1 1 . devpor $end
$var tri1 1 / devoe $end
$var wire 1 0 pc[0]~output_o $end
$var wire 1 1 pc[1]~output_o $end
$var wire 1 2 pc[2]~output_o $end
$var wire 1 3 pc[3]~output_o $end
$var wire 1 4 ck~input_o $end
$var wire 1 5 ck~inputclkctrl_outclk $end
$var wire 1 6 x~input_o $end
$var wire 1 7 opc[1]~input_o $end
$var wire 1 8 opc[2]~input_o $end
$var wire 1 9 opc[0]~input_o $end
$var wire 1 : rpc~3_combout $end
$var wire 1 ; dir[0]~input_o $end
$var wire 1 < rpc~2_combout $end
$var wire 1 = rpc~4_combout $end
$var wire 1 > rpc~0_combout $end
$var wire 1 ? rpc~1_combout $end
$var wire 1 @ rpc~5_combout $end
$var wire 1 A dir[1]~input_o $end
$var wire 1 B rpc~6_combout $end
$var wire 1 C rpc~7_combout $end
$var wire 1 D dir[2]~input_o $end
$var wire 1 E rpc~9_combout $end
$var wire 1 F rpc~8_combout $end
$var wire 1 G rpc~10_combout $end
$var wire 1 H dir[3]~input_o $end
$var wire 1 I rpc~12_combout $end
$var wire 1 J rpc~11_combout $end
$var wire 1 K rpc~13_combout $end
$var wire 1 L rpc [3] $end
$var wire 1 M rpc [2] $end
$var wire 1 N rpc [1] $end
$var wire 1 O rpc [0] $end
$upscope $end
$upscope $end
$enddefinitions $end
#0
$dumpvars
0!
b1111 "
b0 #
0$
0(
0'
0&
0%
x)
0*
1+
x,
1-
1.
1/
00
01
02
03
04
05
06
07
08
09
1:
1;
0<
0=
1>
0?
0@
1A
0B
0C
1D
0E
0F
0G
1H
0I
0J
0K
0O
0N
0M
0L
$end
#3500
1!
14
15
0)
#7000
0!
04
05
1)
#10500
1!
14
15
0)
#14000
0!
04
05
1)
#17500
1!
14
15
0)
#21000
0!
04
05
1)
#24500
1!
14
15
0)
#28000
0!
04
05
1)
#30000
1$
16
0)
1<
0:
1I
1E
1B
1=
1@
#31500
1!
14
15
1)
1O
1C
0@
10
1(
#35000
0!
04
05
0)
#38500
1!
14
15
1)
1N
0O
1@
11
00
1'
0(
#42000
0!
04
05
0)
#45500
1!
14
15
1)
1O
1F
0C
0@
10
1(
1G
#49000
0!
04
05
0)
#52500
1!
14
15
1)
1M
0N
0O
0G
0F
1@
12
01
00
1&
0'
0(
1G
#56000
0!
04
05
0)
#59500
1!
14
15
1)
1O
1C
0@
10
1(
#60000
b1 #
0$
19
06
0)
0<
#63000
0!
04
05
1)
#66500
1!
14
15
0)
1N
0O
1@
11
00
1'
0(
#70000
0!
04
05
1)
#73500
1!
14
15
0)
1O
1J
1F
0C
0@
10
1(
1K
0G
#77000
0!
04
05
1)
#80500
1!
14
15
0)
1L
0M
0N
0O
0K
0J
1G
0F
1@
13
02
01
00
1%
0&
0'
0(
1K
0G
#84000
0!
04
05
1)
#87500
1!
14
15
0)
1O
1C
0@
10
1(
#90000
1$
16
1)
1?
1<
0I
0E
0B
1@
0C
#91000
0!
04
05
0)
#94500
1!
14
15
1)
#98000
0!
04
05
0)
#101500
1!
14
15
1)
#105000
0!
04
05
0)
#108500
1!
14
15
1)
#112000
0!
04
05
0)
#115500
1!
14
15
1)
#119000
0!
04
05
0)
#120000
b11 #
b10 #
0$
09
17
06
1)
0?
0<
1:
0@
0=
1@
#122500
1!
14
15
0)
#126000
0!
04
05
1)
#129500
1!
14
15
0)
#133000
0!
04
05
1)
#136500
1!
14
15
0)
#140000
0!
04
05
1)
#143500
1!
14
15
0)
#147000
0!
04
05
1)
#150000
1$
16
0)
1?
0>
1<
1I
1E
1B
0K
1K
1G
1C
#150500
1!
14
15
1)
1M
1N
1J
1F
12
11
1&
1'
#154000
0!
04
05
0)
#157500
1!
14
15
1)
#161000
0!
04
05
0)
#164500
1!
14
15
1)
#168000
0!
04
05
0)
#171500
1!
14
15
1)
#175000
0!
04
05
0)
#178500
1!
14
15
1)
#180000
b11 #
0$
19
06
0)
#182000
0!
04
05
1)
#185500
1!
14
15
0)
#189000
0!
04
05
1)
#192500
1!
14
15
0)
#196000
0!
04
05
1)
#199500
1!
14
15
0)
#203000
0!
04
05
1)
#206500
1!
14
15
0)
#210000
1$
0!
16
04
05
1)
1>
0:
0K
0G
0C
0@
0I
0E
0B
1=
1K
1G
1C
1@
#213500
1!
14
15
0)
#217000
0!
04
05
1)
#220500
1!
14
15
0)
#224000
0!
04
05
1)
#227500
1!
14
15
0)
#231000
0!
04
05
1)
#234500
1!
14
15
0)
#238000
0!
04
05
1)
#240000
b111 #
b101 #
b100 #
0$
09
07
18
06
0)
0?
0<
1I
1E
1B
0@
0K
0G
0C
#241500
1!
14
15
1)
0L
0M
0N
0O
1K
0J
1G
0F
1@
03
02
01
00
0%
0&
0'
0(
0K
0G
#245000
0!
04
05
0)
#248500
1!
14
15
1)
1O
1C
0@
10
1(
#252000
0!
04
05
0)
#255500
1!
14
15
1)
1N
0O
1@
11
00
1'
0(
#259000
0!
04
05
0)
#262500
1!
14
15
1)
1O
1F
0C
0@
10
1(
1G
#266000
0!
04
05
0)
#269500
1!
14
15
1)
1M
0N
0O
0G
0F
1@
12
01
00
1&
0'
0(
1G
#270000
1$
16
0)
1?
0>
1<
1:
0@
1K
1C
0=
1@
#273000
0!
04
05
1)
#276500
1!
14
15
0)
1L
1N
1O
1J
1F
13
11
10
1%
1'
1(
#280000
0!
04
05
1)
#283500
1!
14
15
0)
#287000
0!
04
05
1)
#290500
1!
14
15
0)
#294000
0!
04
05
1)
#297500
1!
14
15
0)
#300000
b101 #
0$
19
06
1)
0?
1>
0<
0I
0E
0B
0K
0G
0C
1K
1G
1C
#301000
0!
04
05
0)
#304500
1!
14
15
1)
#308000
0!
04
05
0)
#311500
1!
14
15
1)
#315000
0!
04
05
0)
#318500
1!
14
15
1)
#322000
0!
04
05
0)
#325500
1!
14
15
1)
#329000
0!
04
05
0)
#330000
1$
16
1)
1?
1<
0:
0@
1=
1@
#332500
1!
14
15
0)
#336000
0!
04
05
1)
#339500
1!
14
15
0)
#343000
0!
04
05
1)
#346500
1!
14
15
0)
#350000
0!
04
05
1)
#353500
1!
14
15
0)
#357000
0!
04
05
1)
#360000
b111 #
b110 #
0$
09
17
06
0)
0?
0<
1:
0@
0=
1@
#360500
1!
14
15
1)
#364000
0!
04
05
0)
#367500
1!
14
15
1)
#371000
0!
04
05
0)
#374500
1!
14
15
1)
#378000
0!
04
05
0)
#381500
1!
14
15
1)
#385000
0!
04
05
0)
#388500
1!
14
15
1)
#390000
1$
16
0)
1?
1<
0:
0@
1=
1@
#392000
0!
04
05
1)
#395500
1!
14
15
0)
#399000
0!
04
05
1)
#402500
1!
14
15
0)
#406000
0!
04
05
1)
#409500
1!
14
15
0)
#413000
0!
04
05
1)
#416500
1!
14
15
0)
#420000
b111 #
0$
0!
19
06
04
05
1)
0?
0<
1:
0@
0=
1@
#423500
1!
14
15
0)
#427000
0!
04
05
1)
#430500
1!
14
15
0)
#434000
0!
04
05
1)
#437500
1!
14
15
0)
#441000
0!
04
05
1)
#444500
1!
14
15
0)
#448000
0!
04
05
1)
#450000
1$
16
0)
1?
1<
0:
0@
1=
1@
#451500
1!
14
15
1)
#455000
0!
04
05
0)
#458500
1!
14
15
1)
#462000
0!
04
05
0)
#465500
1!
14
15
1)
#469000
0!
04
05
0)
#472500
1!
14
15
1)
#476000
0!
04
05
0)
#479500
1!
14
15
1)
#480000
b11 #
b1 #
b0 #
0$
09
07
08
06
0)
0?
0<
1:
0@
0=
1@
#483000
0!
04
05
1)
#486500
1!
14
15
0)
#490000
0!
04
05
1)
#493500
1!
14
15
0)
#497000
0!
04
05
1)
#500500
1!
14
15
0)
#504000
0!
04
05
1)
#507500
1!
14
15
0)
#510000
1$
16
1)
1<
0:
1I
1E
1B
1=
0K
0G
0C
0@
#511000
0!
04
05
0)
#514500
1!
14
15
1)
0L
0M
0N
0O
1K
0J
1G
0F
1@
03
02
01
00
0%
0&
0'
0(
0K
0G
#518000
0!
04
05
0)
#521500
1!
14
15
1)
1O
1C
0@
10
1(
#525000
0!
04
05
0)
#528500
1!
14
15
1)
1N
0O
1@
11
00
1'
0(
#532000
0!
04
05
0)
#535500
1!
14
15
1)
1O
1F
0C
0@
10
1(
1G
#539000
0!
04
05
0)
#540000
b1 #
0$
19
06
1)
0<
#542500
1!
14
15
0)
1M
0N
0O
0G
0F
1@
12
01
00
1&
0'
0(
1G
#546000
0!
04
05
1)
#549500
1!
14
15
0)
1O
1C
0@
10
1(
#553000
0!
04
05
1)
#556500
1!
14
15
0)
1N
0O
1@
11
00
1'
0(
#560000
0!
04
05
1)
#563500
1!
14
15
0)
1O
1J
1F
0C
0@
10
1(
1K
0G
#567000
0!
04
05
1)
#570000
1$
16
0)
1?
1<
0I
0E
0B
1@
0K
1G
1C
#570500
1!
14
15
1)
#574000
0!
04
05
0)
#577500
1!
14
15
1)
#581000
0!
04
05
0)
#584500
1!
14
15
1)
#588000
0!
04
05
0)
#591500
1!
14
15
1)
#595000
0!
04
05
0)
#598500
1!
14
15
1)
#600000
b11 #
b10 #
0$
09
17
06
0)
0?
0<
1:
0@
0=
1@
#602000
0!
04
05
1)
#605500
1!
14
15
0)
#609000
0!
04
05
1)
#612500
1!
14
15
0)
#616000
0!
04
05
1)
#619500
1!
14
15
0)
#623000
0!
04
05
1)
#626500
1!
14
15
0)
#630000
1$
0!
16
04
05
1)
1?
0>
1<
1I
1E
1B
0G
0C
1K
1G
1C
#633500
1!
14
15
0)
1L
13
1%
#637000
0!
04
05
1)
#640500
1!
14
15
0)
#644000
0!
04
05
1)
#647500
1!
14
15
0)
#651000
0!
04
05
1)
#654500
1!
14
15
0)
#658000
0!
04
05
1)
#660000
b11 #
0$
19
06
0)
#661500
1!
14
15
1)
#665000
0!
04
05
0)
#668500
1!
14
15
1)
#672000
0!
04
05
0)
#675500
1!
14
15
1)
#679000
0!
04
05
0)
#682500
1!
14
15
1)
#686000
0!
04
05
0)
#689500
1!
14
15
1)
#690000
1$
16
0)
1>
0:
0K
0G
0C
0@
0I
0E
0B
1=
1K
1G
1C
1@
#693000
0!
04
05
1)
#696500
1!
14
15
0)
#700000
0!
04
05
1)
#703500
1!
14
15
0)
#707000
0!
04
05
1)
#710500
1!
14
15
0)
#714000
0!
04
05
1)
#717500
1!
14
15
0)
#720000
b111 #
b101 #
b100 #
0$
09
07
18
06
1)
0?
0<
1I
1E
1B
0@
0K
0G
0C
#721000
0!
04
05
0)
#724500
1!
14
15
1)
0L
0M
0N
0O
1K
0J
1G
0F
1@
03
02
01
00
0%
0&
0'
0(
0K
0G
#728000
0!
04
05
0)
#731500
1!
14
15
1)
1O
1C
0@
10
1(
#735000
0!
04
05
0)
#738500
1!
14
15
1)
1N
0O
1@
11
00
1'
0(
#742000
0!
04
05
0)
#745500
1!
14
15
1)
1O
1F
0C
0@
10
1(
1G
#749000
0!
04
05
0)
#750000
1$
16
1)
1?
0>
1<
1:
1K
1C
0=
1@
#752500
1!
14
15
0)
1L
1M
1J
13
12
1%
1&
#756000
0!
04
05
1)
#759500
1!
14
15
0)
#763000
0!
04
05
1)
#766500
1!
14
15
0)
#770000
0!
04
05
1)
#773500
1!
14
15
0)
#777000
0!
04
05
1)
#780000
b101 #
0$
19
06
0)
0?
1>
0<
0I
0E
0B
0K
0G
0C
1K
1G
1C
#780500
1!
14
15
1)
#784000
0!
04
05
0)
#787500
1!
14
15
1)
#791000
0!
04
05
0)
#794500
1!
14
15
1)
#798000
0!
04
05
0)
#801500
1!
14
15
1)
#805000
0!
04
05
0)
#808500
1!
14
15
1)
#810000
1$
16
0)
1?
1<
0:
0@
1=
1@
#812000
0!
04
05
1)
#815500
1!
14
15
0)
#819000
0!
04
05
1)
#822500
1!
14
15
0)
#826000
0!
04
05
1)
#829500
1!
14
15
0)
#833000
0!
04
05
1)
#836500
1!
14
15
0)
#840000
b111 #
b110 #
0$
0!
09
17
06
04
05
1)
0?
0<
1:
0@
0=
1@
#843500
1!
14
15
0)
#847000
0!
04
05
1)
#850500
1!
14
15
0)
#854000
0!
04
05
1)
#857500
1!
14
15
0)
#861000
0!
04
05
1)
#864500
1!
14
15
0)
#868000
0!
04
05
1)
#870000
1$
16
0)
1?
1<
0:
0@
1=
1@
#871500
1!
14
15
1)
#875000
0!
04
05
0)
#878500
1!
14
15
1)
#882000
0!
04
05
0)
#885500
1!
14
15
1)
#889000
0!
04
05
0)
#892500
1!
14
15
1)
#896000
0!
04
05
0)
#899500
1!
14
15
1)
#900000
b111 #
0$
19
06
0)
0?
0<
1:
0@
0=
1@
#903000
0!
04
05
1)
#906500
1!
14
15
0)
#910000
0!
04
05
1)
#913500
1!
14
15
0)
#917000
0!
04
05
1)
#920500
1!
14
15
0)
#924000
0!
04
05
1)
#927500
1!
14
15
0)
#930000
1$
16
1)
1?
1<
0:
0@
1=
1@
#931000
0!
04
05
0)
#934500
1!
14
15
1)
#938000
0!
04
05
0)
#941500
1!
14
15
1)
#945000
0!
04
05
0)
#948500
1!
14
15
1)
#952000
0!
04
05
0)
#955500
1!
14
15
1)
#959000
0!
04
05
0)
#960000
b11 #
b1 #
b0 #
0$
09
07
08
06
1)
0?
0<
1:
0@
0=
1@
#962500
1!
14
15
0)
#966000
0!
04
05
1)
#969500
1!
14
15
0)
#973000
0!
04
05
1)
#976500
1!
14
15
0)
#980000
0!
04
05
1)
#983500
1!
14
15
0)
#987000
0!
04
05
1)
#990000
1$
16
0)
1<
0:
1I
1E
1B
1=
0K
0G
0C
0@
#990500
1!
14
15
1)
0L
0M
0N
0O
1K
0J
1G
0F
1@
03
02
01
00
0%
0&
0'
0(
0K
0G
#994000
0!
04
05
0)
#997500
1!
14
15
1)
1O
1C
0@
10
1(
