Mica2/simulation/qsim/Myca2.msim.vcd
$comment
	File created using the following command:
		vcd file Myca2.msim.vcd -direction
$end
$date
	Thu Oct 23 20:24:02 2014
$end
$version
	ModelSim Version 10.1e
$end
$timescale
	1ps
$end
$scope module MycaII_vlg_vec_tst $end
$var reg 8 ! DIRB [7:0] $end
$var reg 8 " DIRI [7:0] $end
$var reg 1 # ck $end
$var reg 3 $ opc [2:0] $end
$var reg 1 % x $end
$var wire 1 & PC [7] $end
$var wire 1 ' PC [6] $end
$var wire 1 ( PC [5] $end
$var wire 1 ) PC [4] $end
$var wire 1 * PC [3] $end
$var wire 1 + PC [2] $end
$var wire 1 , PC [1] $end
$var wire 1 - PC [0] $end
$var wire 1 . clk $end
$var wire 1 / sampler $end
$scope module i1 $end
$var wire 1 0 gnd $end
$var wire 1 1 vcc $end
$var wire 1 2 unknown $end
$var tri1 1 3 devclrn $end
$var tri1 1 4 devpor $end
$var tri1 1 5 devoe $end
$var wire 1 6 PC[0]~output_o $end
$var wire 1 7 PC[1]~output_o $end
$var wire 1 8 PC[2]~output_o $end
$var wire 1 9 PC[3]~output_o $end
$var wire 1 : PC[4]~output_o $end
$var wire 1 ; PC[5]~output_o $end
$var wire 1 < PC[6]~output_o $end
$var wire 1 = PC[7]~output_o $end
$var wire 1 > clk~output_o $end
$var wire 1 ? ck~input_o $end
$var wire 1 @ ck~inputclkctrl_outclk $end
$var wire 1 A div1|Add0~0_combout $end
$var wire 1 B div1|rcont~2_combout $end
$var wire 1 C div1|Add0~1 $end
$var wire 1 D div1|Add0~2_combout $end
$var wire 1 E div1|rcont~1_combout $end
$var wire 1 F div1|Add0~3 $end
$var wire 1 G div1|Add0~4_combout $end
$var wire 1 H div1|Add0~5 $end
$var wire 1 I div1|Add0~6_combout $end
$var wire 1 J div1|rcont~0_combout $end
$var wire 1 K div1|Add0~7 $end
$var wire 1 L div1|Add0~8_combout $end
$var wire 1 M div1|rcont~3_combout $end
$var wire 1 N div1|Add0~9 $end
$var wire 1 O div1|Add0~10_combout $end
$var wire 1 P div1|rcont~4_combout $end
$var wire 1 Q div1|Add0~11 $end
$var wire 1 R div1|Add0~12_combout $end
$var wire 1 S div1|rcont~5_combout $end
$var wire 1 T div1|Add0~13 $end
$var wire 1 U div1|Add0~14_combout $end
$var wire 1 V div1|rcont~6_combout $end
$var wire 1 W div1|Add0~15 $end
$var wire 1 X div1|Add0~16_combout $end
$var wire 1 Y div1|rcont~7_combout $end
$var wire 1 Z div1|Add0~17 $end
$var wire 1 [ div1|Add0~18_combout $end
$var wire 1 \ div1|rcont~8_combout $end
$var wire 1 ] div1|Add0~19 $end
$var wire 1 ^ div1|Add0~20_combout $end
$var wire 1 _ div1|rcont~9_combout $end
$var wire 1 ` div1|Add0~21 $end
$var wire 1 a div1|Add0~22_combout $end
$var wire 1 b div1|rcont~10_combout $end
$var wire 1 c div1|Add0~23 $end
$var wire 1 d div1|Add0~24_combout $end
$var wire 1 e div1|rcont~11_combout $end
$var wire 1 f div1|Add0~25 $end
$var wire 1 g div1|Add0~26_combout $end
$var wire 1 h div1|rcont~12_combout $end
$var wire 1 i div1|Add0~27 $end
$var wire 1 j div1|Add0~28_combout $end
$var wire 1 k div1|rcont~13_combout $end
$var wire 1 l div1|Add0~29 $end
$var wire 1 m div1|Add0~30_combout $end
$var wire 1 n div1|rcont~14_combout $end
$var wire 1 o div1|Add0~31 $end
$var wire 1 p div1|Add0~32_combout $end
$var wire 1 q div1|rcont~15_combout $end
$var wire 1 r div1|Add0~33 $end
$var wire 1 s div1|Add0~34_combout $end
$var wire 1 t div1|rcont~16_combout $end
$var wire 1 u div1|Add0~35 $end
$var wire 1 v div1|Add0~36_combout $end
$var wire 1 w div1|rcont~17_combout $end
$var wire 1 x div1|Add0~37 $end
$var wire 1 y div1|Add0~38_combout $end
$var wire 1 z div1|rcont~18_combout $end
$var wire 1 { div1|Equal0~5_combout $end
$var wire 1 | div1|Add0~39 $end
$var wire 1 } div1|Add0~40_combout $end
$var wire 1 ~ div1|rcont~19_combout $end
$var wire 1 !! div1|Add0~41 $end
$var wire 1 "! div1|Add0~42_combout $end
$var wire 1 #! div1|rcont~20_combout $end
$var wire 1 $! div1|Add0~43 $end
$var wire 1 %! div1|Add0~44_combout $end
$var wire 1 &! div1|rcont~21_combout $end
$var wire 1 '! div1|Add0~45 $end
$var wire 1 (! div1|Add0~46_combout $end
$var wire 1 )! div1|rcont~22_combout $end
$var wire 1 *! div1|Add0~47 $end
$var wire 1 +! div1|Add0~48_combout $end
$var wire 1 ,! div1|rcont~23_combout $end
$var wire 1 -! div1|Equal0~2_combout $end
$var wire 1 .! div1|Equal0~3_combout $end
$var wire 1 /! div1|Equal0~1_combout $end
$var wire 1 0! div1|Equal0~0_combout $end
$var wire 1 1! div1|Equal0~4_combout $end
$var wire 1 2! div1|Equal0~6_combout $end
$var wire 1 3! div1|Equal0~7_combout $end
$var wire 1 4! div1|rck1s~0_combout $end
$var wire 1 5! div1|rck1s~feeder_combout $end
$var wire 1 6! div1|rck1s~q $end
$var wire 1 7! div1|rck1s~clkctrl_outclk $end
$var wire 1 8! opc[1]~input_o $end
$var wire 1 9! x~input_o $end
$var wire 1 :! opc[0]~input_o $end
$var wire 1 ;! opc[2]~input_o $end
$var wire 1 <! mrm1|D[5]~0_combout $end
$var wire 1 =! mrm1|D[6]~1_combout $end
$var wire 1 >! stack1|r0~4_combout $end
$var wire 1 ?! stack1|r0[3]~1_combout $end
$var wire 1 @! stack1|r0~3_combout $end
$var wire 1 A! stack1|r0~2_combout $end
$var wire 1 B! stack1|r0[3]~0_combout $end
$var wire 1 C! pc1|Add0~0_combout $end
$var wire 1 D! pc1|rQ[0]~25_combout $end
$var wire 1 E! DIRB[0]~input_o $end
$var wire 1 F! pc1|rQ[0]~26_combout $end
$var wire 1 G! DIRI[0]~input_o $end
$var wire 1 H! pc1|rQ~9_combout $end
$var wire 1 I! pc1|rQ~10_combout $end
$var wire 1 J! pc1|rQ~27_combout $end
$var wire 1 K! DIRI[1]~input_o $end
$var wire 1 L! DIRB[1]~input_o $end
$var wire 1 M! pc1|Add0~1 $end
$var wire 1 N! pc1|Add0~2_combout $end
$var wire 1 O! stack1|r1~3_combout $end
$var wire 1 P! stack1|r1~2_combout $end
$var wire 1 Q! stack1|r1~1_combout $end
$var wire 1 R! stack1|r1[3]~0_combout $end
$var wire 1 S! pc1|rQ~11_combout $end
$var wire 1 T! pc1|rQ~12_combout $end
$var wire 1 U! stack1|r2~3_combout $end
$var wire 1 V! stack1|r2~2_combout $end
$var wire 1 W! stack1|r2~1_combout $end
$var wire 1 X! stack1|r2[3]~0_combout $end
$var wire 1 Y! pc1|Add0~3 $end
$var wire 1 Z! pc1|Add0~4_combout $end
$var wire 1 [! DIRB[2]~input_o $end
$var wire 1 \! DIRI[2]~input_o $end
$var wire 1 ]! pc1|rQ~13_combout $end
$var wire 1 ^! pc1|rQ~14_combout $end
$var wire 1 _! DIRI[3]~input_o $end
$var wire 1 `! DIRB[3]~input_o $end
$var wire 1 a! stack1|r3~3_combout $end
$var wire 1 b! stack1|r3~2_combout $end
$var wire 1 c! stack1|r3~1_combout $end
$var wire 1 d! stack1|r3[3]~0_combout $end
$var wire 1 e! pc1|Add0~5 $end
$var wire 1 f! pc1|Add0~6_combout $end
$var wire 1 g! pc1|rQ~15_combout $end
$var wire 1 h! pc1|rQ~16_combout $end
$var wire 1 i! stack1|r4~3_combout $end
$var wire 1 j! stack1|r4~2_combout $end
$var wire 1 k! stack1|r4~1_combout $end
$var wire 1 l! stack1|r4[3]~0_combout $end
$var wire 1 m! pc1|Add0~7 $end
$var wire 1 n! pc1|Add0~8_combout $end
$var wire 1 o! DIRB[4]~input_o $end
$var wire 1 p! DIRI[4]~input_o $end
$var wire 1 q! pc1|rQ~17_combout $end
$var wire 1 r! pc1|rQ~18_combout $end
$var wire 1 s! DIRI[5]~input_o $end
$var wire 1 t! DIRB[5]~input_o $end
$var wire 1 u! pc1|Add0~9 $end
$var wire 1 v! pc1|Add0~10_combout $end
$var wire 1 w! stack1|r5~3_combout $end
$var wire 1 x! stack1|r5~2_combout $end
$var wire 1 y! stack1|r5~1_combout $end
$var wire 1 z! stack1|r5[3]~0_combout $end
$var wire 1 {! pc1|rQ~19_combout $end
$var wire 1 |! pc1|rQ~20_combout $end
$var wire 1 }! stack1|r6~3_combout $end
$var wire 1 ~! stack1|r6~2_combout $end
$var wire 1 !" stack1|r6~1_combout $end
$var wire 1 "" stack1|r6[3]~0_combout $end
$var wire 1 #" pc1|Add0~11 $end
$var wire 1 $" pc1|Add0~12_combout $end
$var wire 1 %" DIRI[6]~input_o $end
$var wire 1 &" DIRB[6]~input_o $end
$var wire 1 '" pc1|rQ~21_combout $end
$var wire 1 (" pc1|rQ~22_combout $end
$var wire 1 )" DIRI[7]~input_o $end
$var wire 1 *" DIRB[7]~input_o $end
$var wire 1 +" pc1|rQ~23_combout $end
$var wire 1 ," stack1|r7~3_combout $end
$var wire 1 -" stack1|r7~2_combout $end
$var wire 1 ." stack1|r7~1_combout $end
$var wire 1 /" stack1|r7[3]~0_combout $end
$var wire 1 0" pc1|Add0~13 $end
$var wire 1 1" pc1|Add0~14_combout $end
$var wire 1 2" pc1|rQ~24_combout $end
$var wire 1 3" stack1|r5 [3] $end
$var wire 1 4" stack1|r5 [2] $end
$var wire 1 5" stack1|r5 [1] $end
$var wire 1 6" stack1|r5 [0] $end
$var wire 1 7" stack1|r1 [3] $end
$var wire 1 8" stack1|r1 [2] $end
$var wire 1 9" stack1|r1 [1] $end
$var wire 1 :" stack1|r1 [0] $end
$var wire 1 ;" pc1|rQ [7] $end
$var wire 1 <" pc1|rQ [6] $end
$var wire 1 =" pc1|rQ [5] $end
$var wire 1 >" pc1|rQ [4] $end
$var wire 1 ?" pc1|rQ [3] $end
$var wire 1 @" pc1|rQ [2] $end
$var wire 1 A" pc1|rQ [1] $end
$var wire 1 B" pc1|rQ [0] $end
$var wire 1 C" stack1|r0 [3] $end
$var wire 1 D" stack1|r0 [2] $end
$var wire 1 E" stack1|r0 [1] $end
$var wire 1 F" stack1|r0 [0] $end
$var wire 1 G" stack1|r7 [3] $end
$var wire 1 H" stack1|r7 [2] $end
$var wire 1 I" stack1|r7 [1] $end
$var wire 1 J" stack1|r7 [0] $end
$var wire 1 K" stack1|r2 [3] $end
$var wire 1 L" stack1|r2 [2] $end
$var wire 1 M" stack1|r2 [1] $end
$var wire 1 N" stack1|r2 [0] $end
$var wire 1 O" stack1|r4 [3] $end
$var wire 1 P" stack1|r4 [2] $end
$var wire 1 Q" stack1|r4 [1] $end
$var wire 1 R" stack1|r4 [0] $end
$var wire 1 S" stack1|r3 [3] $end
$var wire 1 T" stack1|r3 [2] $end
$var wire 1 U" stack1|r3 [1] $end
$var wire 1 V" stack1|r3 [0] $end
$var wire 1 W" stack1|r6 [3] $end
$var wire 1 X" stack1|r6 [2] $end
$var wire 1 Y" stack1|r6 [1] $end
$var wire 1 Z" stack1|r6 [0] $end
$var wire 1 [" div1|rcont [24] $end
$var wire 1 \" div1|rcont [23] $end
$var wire 1 ]" div1|rcont [22] $end
$var wire 1 ^" div1|rcont [21] $end
$var wire 1 _" div1|rcont [20] $end
$var wire 1 `" div1|rcont [19] $end
$var wire 1 a" div1|rcont [18] $end
$var wire 1 b" div1|rcont [17] $end
$var wire 1 c" div1|rcont [16] $end
$var wire 1 d" div1|rcont [15] $end
$var wire 1 e" div1|rcont [14] $end
$var wire 1 f" div1|rcont [13] $end
$var wire 1 g" div1|rcont [12] $end
$var wire 1 h" div1|rcont [11] $end
$var wire 1 i" div1|rcont [10] $end
$var wire 1 j" div1|rcont [9] $end
$var wire 1 k" div1|rcont [8] $end
$var wire 1 l" div1|rcont [7] $end
$var wire 1 m" div1|rcont [6] $end
$var wire 1 n" div1|rcont [5] $end
$var wire 1 o" div1|rcont [4] $end
$var wire 1 p" div1|rcont [3] $end
$var wire 1 q" div1|rcont [2] $end
$var wire 1 r" div1|rcont [1] $end
$var wire 1 s" div1|rcont [0] $end
$upscope $end
$upscope $end
$enddefinitions $end
#0
$dumpvars
b11001 !
b100001 "
0#
b0 $
1%
0-
0,
0+
0*
0)
0(
0'
0&
0.
x/
00
11
x2
13
14
15
06
07
08
09
0:
0;
0<
0=
0>
0?
0@
1A
0B
0C
1D
0E
1F
1G
0H
1I
0J
1K
1L
0M
0N
1O
0P
1Q
1R
0S
0T
1U
0V
1W
1X
0Y
0Z
1[
0\
1]
1^
0_
0`
1a
0b
1c
1d
0e
0f
1g
0h
1i
1j
0k
0l
1m
0n
1o
1p
0q
0r
1s
0t
1u
1v
0w
0x
1y
0z
1{
1|
1}
0~
0!!
1"!
0#!
1$!
1%!
0&!
0'!
1(!
0)!
1*!
1+!
0,!
1-!
1.!
1/!
10!
11!
12!
13!
14!
15!
06!
07!
08!
19!
0:!
0;!
0<!
0=!
0>!
0?!
0@!
0A!
0B!
1C!
0D!
1E!
0F!
1G!
1H!
1I!
1J!
0K!
0L!
0M!
0N!
0O!
0P!
0Q!
0R!
0S!
0T!
0U!
0V!
0W!
0X!
1Y!
0Z!
0[!
0\!
0]!
0^!
0_!
1`!
0a!
0b!
0c!
0d!
0e!
0f!
0g!
0h!
0i!
0j!
0k!
0l!
1m!
0n!
1o!
0p!
0q!
0r!
1s!
0t!
0u!
0v!
0w!
0x!
0y!
0z!
0{!
0|!
0}!
0~!
0!"
0""
1#"
0$"
0%"
0&"
1'"
0("
0)"
0*"
1+"
0,"
0-"
0."
0/"
00"
01"
02"
06"
05"
04"
03"
0:"
09"
08"
07"
0B"
0A"
0@"
0?"
0>"
0="
0<"
0;"
0F"
0E"
0D"
0C"
0J"
0I"
0H"
0G"
0N"
0M"
0L"
0K"
0R"
0Q"
0P"
0O"
0V"
0U"
0T"
0S"
0Z"
0Y"
0X"
0W"
0s"
0r"
0q"
0p"
0o"
0n"
0m"
0l"
0k"
0j"
0i"
0h"
0g"
0f"
0e"
0d"
0c"
0b"
0a"
0`"
0_"
0^"
0]"
0\"
0["
$end
#500
1#
1?
1@
0/
1q"
16!
17!
00!
1H
0G
04!
1>
1.
01!
0K
0I
05!
03!
1N
0L
14!
1,!
1)!
1&!
1#!
1~
1z
1w
1t
1q
1n
1k
1h
1e
1b
1_
1\
1Y
1V
1S
1P
1E
1B
0Q
0O
15!
1T
0R
0P
0W
0U
0S
1Z
0X
0V
0]
0[
0Y
1`
0^
0\
0c
0a
0_
1f
0d
0b
0i
0g
0e
1l
0j
0h
0o
0m
0k
1r
0p
0n
0u
0s
0q
1x
0v
0t
0|
0y
0w
1!!
0}
0z
0$!
0"!
0~
1'!
0%!
0#!
0*!
0(!
0&!
0+!
0)!
0,!
1B"
1M!
0C!
1B!
16
1-
1N!
0H!
1S!
0I!
1T!
#1000
0#
0?
0@
1/
#1500
1#
1?
1@
0/
0q"
1r"
1s"
0H
1G
0F
0D
1C
0A
1K
1I
1H
0G
0E
1D
0B
0N
1L
1J
0K
0I
1E
1Q
1O
1M
1N
0L
0J
0T
1R
1P
0Q
0O
0M
1W
1U
1S
1T
0R
0P
0Z
1X
1V
0W
0U
0S
1]
1[
1Y
1Z
0X
0V
0`
1^
1\
0]
0[
0Y
1c
1a
1_
1`
0^
0\
0f
1d
1b
0c
0a
0_
1i
1g
1e
1f
0d
0b
0l
1j
1h
0i
0g
0e
1o
1m
1k
1l
0j
0h
0r
1p
1n
0o
0m
0k
1u
1s
1q
1r
0p
0n
0x
1v
1t
0u
0s
0q
1|
1y
1w
1x
0v
0t
0!!
1}
1z
0|
0y
0w
1$!
1"!
1~
1!!
0}
0z
0'!
1%!
1#!
0$!
0"!
0~
1*!
1(!
1&!
1'!
0%!
0#!
1+!
1)!
0*!
0(!
0&!
1,!
0+!
0)!
0,!
#2000
0#
0?
0@
1/
#2500
1#
1?
1@
0/
0s"
0C
1A
0D
1B
0E
#3000
0#
0?
0@
1/
#3500
1#
1?
1@
0/
0r"
1s"
1F
1D
1C
0A
0H
1G
1E
0F
0D
0B
1K
1I
1H
0G
0E
0N
1L
1J
0K
0I
1Q
1O
1M
1N
0L
0J
0T
1R
1P
0Q
0O
0M
1W
1U
1S
1T
0R
0P
0Z
1X
1V
0W
0U
0S
1]
1[
1Y
1Z
0X
0V
0`
1^
1\
0]
0[
0Y
1c
1a
1_
1`
0^
0\
0f
1d
1b
0c
0a
0_
1i
1g
1e
1f
0d
0b
0l
1j
1h
0i
0g
0e
1o
1m
1k
1l
0j
0h
0r
1p
1n
0o
0m
0k
1u
1s
1q
1r
0p
0n
0x
1v
1t
0u
0s
0q
1|
1y
1w
1x
0v
0t
0!!
1}
1z
0|
0y
0w
1$!
1"!
1~
1!!
0}
0z
0'!
1%!
1#!
0$!
0"!
0~
1*!
1(!
1&!
1'!
0%!
0#!
1+!
1)!
0*!
0(!
0&!
1,!
0+!
0)!
0,!
#4000
0#
0?
0@
1/
#4500
1#
1?
1@
0/
0s"
10!
0C
1A
11!
1F
1D
1B
13!
0H
1G
1E
04!
0E
0B
1K
1I
05!
0N
1L
1Q
1O
0T
1R
1W
1U
0Z
1X
1]
1[
0`
1^
1c
1a
0f
1d
1i
1g
0l
1j
1o
1m
0r
1p
1u
1s
0x
1v
1|
1y
0!!
1}
1$!
1"!
0'!
1%!
1*!
1(!
1+!
#5000
0#
0?
0@
1/
#5500
1#
1?
1@
0/
1q"
06!
07!
00!
1H
0G
14!
0>
0.
01!
0K
0I
15!
03!
1N
0L
04!
1,!
1)!
1&!
1#!
1~
1z
1w
1t
1q
1n
1k
1h
1e
1b
1_
1\
1Y
1V
1S
1P
1E
1B
0Q
0O
05!
1T
0R
0P
0W
0U
0S
1Z
0X
0V
0]
0[
0Y
1`
0^
0\
0c
0a
0_
1f
0d
0b
0i
0g
0e
1l
0j
0h
0o
0m
0k
1r
0p
0n
0u
0s
0q
1x
0v
0t
0|
0y
0w
1!!
0}
0z
0$!
0"!
0~
1'!
0%!
0#!
0*!
0(!
0&!
0+!
0)!
0,!
#6000
0#
0?
0@
1/
#6500
1#
1?
1@
0/
0q"
1r"
1s"
0H
1G
0F
0D
1C
0A
1K
1I
1H
0G
0E
1D
0B
0N
1L
1J
0K
0I
1E
1Q
1O
1M
1N
0L
0J
0T
1R
1P
0Q
0O
0M
1W
1U
1S
1T
0R
0P
0Z
1X
1V
0W
0U
0S
1]
1[
1Y
1Z
0X
0V
0`
1^
1\
0]
0[
0Y
1c
1a
1_
1`
0^
0\
0f
1d
1b
0c
0a
0_
1i
1g
1e
1f
0d
0b
0l
1j
1h
0i
0g
0e
1o
1m
1k
1l
0j
0h
0r
1p
1n
0o
0m
0k
1u
1s
1q
1r
0p
0n
0x
1v
1t
0u
0s
0q
1|
1y
1w
1x
0v
0t
0!!
1}
1z
0|
0y
0w
1$!
1"!
1~
1!!
0}
0z
0'!
1%!
1#!
0$!
0"!
0~
1*!
1(!
1&!
1'!
0%!
0#!
1+!
1)!
0*!
0(!
0&!
1,!
0+!
0)!
0,!
#7000
0#
0?
0@
1/
#7500
1#
1?
1@
0/
0s"
0C
1A
0D
1B
0E
#8000
0#
0?
0@
1/
#8500
1#
1?
1@
0/
0r"
1s"
1F
1D
1C
0A
0H
1G
1E
0F
0D
0B
1K
1I
1H
0G
0E
0N
1L
1J
0K
0I
1Q
1O
1M
1N
0L
0J
0T
1R
1P
0Q
0O
0M
1W
1U
1S
1T
0R
0P
0Z
1X
1V
0W
0U
0S
1]
1[
1Y
1Z
0X
0V
0`
1^
1\
0]
0[
0Y
1c
1a
1_
1`
0^
0\
0f
1d
1b
0c
0a
0_
1i
1g
1e
1f
0d
0b
0l
1j
1h
0i
0g
0e
1o
1m
1k
1l
0j
0h
0r
1p
1n
0o
0m
0k
1u
1s
1q
1r
0p
0n
0x
1v
1t
0u
0s
0q
1|
1y
1w
1x
0v
0t
0!!
1}
1z
0|
0y
0w
1$!
1"!
1~
1!!
0}
0z
0'!
1%!
1#!
0$!
0"!
0~
1*!
1(!
1&!
1'!
0%!
0#!
1+!
1)!
0*!
0(!
0&!
1,!
0+!
0)!
0,!
#9000
0#
0?
0@
1/
#9500
1#
1?
1@
0/
0s"
10!
0C
1A
11!
1F
1D
1B
13!
0H
1G
1E
14!
0E
0B
1K
1I
15!
0N
1L
1Q
1O
0T
1R
1W
1U
0Z
1X
1]
1[
0`
1^
1c
1a
0f
1d
1i
1g
0l
1j
1o
1m
0r
1p
1u
1s
0x
1v
1|
1y
0!!
1}
1$!
1"!
0'!
1%!
1*!
1(!
1+!
#10000
0%
0#
09!
0?
0@
1/
#10500
1#
1?
1@
0/
1q"
16!
17!
00!
1H
0G
04!
1>
1.
01!
0K
0I
05!
03!
1N
0L
14!
1,!
1)!
1&!
1#!
1~
1z
1w
1t
1q
1n
1k
1h
1e
1b
1_
1\
1Y
1V
1S
1P
1E
1B
0Q
0O
15!
1T
0R
0P
0W
0U
0S
1Z
0X
0V
0]
0[
0Y
1`
0^
0\
0c
0a
0_
1f
0d
0b
0i
0g
0e
1l
0j
0h
0o
0m
0k
1r
0p
0n
0u
0s
0q
1x
0v
0t
0|
0y
0w
1!!
0}
0z
0$!
0"!
0~
1'!
0%!
0#!
0*!
0(!
0&!
0+!
0)!
0,!
1A"
0B"
1R!
0Y!
0N!
0M!
1C!
0B!
17
06
1,
0-
1Z!
0S!
1Y!
1N!
1H!
1]!
0T!
0Z!
1S!
1I!
1^!
0]!
1T!
0^!
#11000
0#
0?
0@
1/
#11500
1#
1?
1@
0/
0q"
1r"
1s"
0H
1G
0F
0D
1C
0A
1K
1I
1H
0G
0E
1D
0B
0N
1L
1J
0K
0I
1E
1Q
1O
1M
1N
0L
0J
0T
1R
1P
0Q
0O
0M
1W
1U
1S
1T
0R
0P
0Z
1X
1V
0W
0U
0S
1]
1[
1Y
1Z
0X
0V
0`
1^
1\
0]
0[
0Y
1c
1a
1_
1`
0^
0\
0f
1d
1b
0c
0a
0_
1i
1g
1e
1f
0d
0b
0l
1j
1h
0i
0g
0e
1o
1m
1k
1l
0j
0h
0r
1p
1n
0o
0m
0k
1u
1s
1q
1r
0p
0n
0x
1v
1t
0u
0s
0q
1|
1y
1w
1x
0v
0t
0!!
1}
1z
0|
0y
0w
1$!
1"!
1~
1!!
0}
0z
0'!
1%!
1#!
0$!
0"!
0~
1*!
1(!
1&!
1'!
0%!
0#!
1+!
1)!
0*!
0(!
0&!
1,!
0+!
0)!
0,!
#12000
0#
0?
0@
1/
#12500
1#
1?
1@
0/
0s"
0C
1A
0D
1B
0E
#13000
0#
0?
0@
1/
#13500
1#
1?
1@
0/
0r"
1s"
1F
1D
1C
0A
0H
1G
1E
0F
0D
0B
1K
1I
1H
0G
0E
0N
1L
1J
0K
0I
1Q
1O
1M
1N
0L
0J
0T
1R
1P
0Q
0O
0M
1W
1U
1S
1T
0R
0P
0Z
1X
1V
0W
0U
0S
1]
1[
1Y
1Z
0X
0V
0`
1^
1\
0]
0[
0Y
1c
1a
1_
1`
0^
0\
0f
1d
1b
0c
0a
0_
1i
1g
1e
1f
0d
0b
0l
1j
1h
0i
0g
0e
1o
1m
1k
1l
0j
0h
0r
1p
1n
0o
0m
0k
1u
1s
1q
1r
0p
0n
0x
1v
1t
0u
0s
0q
1|
1y
1w
1x
0v
0t
0!!
1}
1z
0|
0y
0w
1$!
1"!
1~
1!!
0}
0z
0'!
1%!
1#!
0$!
0"!
0~
1*!
1(!
1&!
1'!
0%!
0#!
1+!
1)!
0*!
0(!
0&!
1,!
0+!
0)!
0,!
#14000
0#
0?
0@
1/
#14500
1#
1?
1@
0/
0s"
10!
0C
1A
11!
1F
1D
1B
13!
0H
1G
1E
04!
0E
0B
1K
1I
05!
0N
1L
1Q
1O
0T
1R
1W
1U
0Z
1X
1]
1[
0`
1^
1c
1a
0f
1d
1i
1g
0l
1j
1o
1m
0r
1p
1u
1s
0x
1v
1|
1y
0!!
1}
1$!
1"!
0'!
1%!
1*!
1(!
1+!
#15000
0#
0?
0@
1/
#15500
1#
1?
1@
0/
1q"
06!
07!
00!
1H
0G
14!
0>
0.
01!
0K
0I
15!
03!
1N
0L
04!
1,!
1)!
1&!
1#!
1~
1z
1w
1t
1q
1n
1k
1h
1e
1b
1_
1\
1Y
1V
1S
1P
1E
1B
0Q
0O
05!
1T
0R
0P
0W
0U
0S
1Z
0X
0V
0]
0[
0Y
1`
0^
0\
0c
0a
0_
1f
0d
0b
0i
0g
0e
1l
0j
0h
0o
0m
0k
1r
0p
0n
0u
0s
0q
1x
0v
0t
0|
0y
0w
1!!
0}
0z
0$!
0"!
0~
1'!
0%!
0#!
0*!
0(!
0&!
0+!
0)!
0,!
#16000
0#
0?
0@
1/
#16500
1#
1?
1@
0/
0q"
1r"
1s"
0H
1G
0F
0D
1C
0A
1K
1I
1H
0G
0E
1D
0B
0N
1L
1J
0K
0I
1E
1Q
1O
1M
1N
0L
0J
0T
1R
1P
0Q
0O
0M
1W
1U
1S
1T
0R
0P
0Z
1X
1V
0W
0U
0S
1]
1[
1Y
1Z
0X
0V
0`
1^
1\
0]
0[
0Y
1c
1a
1_
1`
0^
0\
0f
1d
1b
0c
0a
0_
1i
1g
1e
1f
0d
0b
0l
1j
1h
0i
0g
0e
1o
1m
1k
1l
0j
0h
0r
1p
1n
0o
0m
0k
1u
1s
1q
1r
0p
0n
0x
1v
1t
0u
0s
0q
1|
1y
1w
1x
0v
0t
0!!
1}
1z
0|
0y
0w
1$!
1"!
1~
1!!
0}
0z
0'!
1%!
1#!
0$!
0"!
0~
1*!
1(!
1&!
1'!
0%!
0#!
1+!
1)!
0*!
0(!
0&!
1,!
0+!
0)!
0,!
#17000
0#
0?
0@
1/
#17500
1#
1?
1@
0/
0s"
0C
1A
0D
1B
0E
#18000
0#
0?
0@
1/
#18500
1#
1?
1@
0/
0r"
1s"
1F
1D
1C
0A
0H
1G
1E
0F
0D
0B
1K
1I
1H
0G
0E
0N
1L
1J
0K
0I
1Q
1O
1M
1N
0L
0J
0T
1R
1P
0Q
0O
0M
1W
1U
1S
1T
0R
0P
0Z
1X
1V
0W
0U
0S
1]
1[
1Y
1Z
0X
0V
0`
1^
1\
0]
0[
0Y
1c
1a
1_
1`
0^
0\
0f
1d
1b
0c
0a
0_
1i
1g
1e
1f
0d
0b
0l
1j
1h
0i
0g
0e
1o
1m
1k
1l
0j
0h
0r
1p
1n
0o
0m
0k
1u
1s
1q
1r
0p
0n
0x
1v
1t
0u
0s
0q
1|
1y
1w
1x
0v
0t
0!!
1}
1z
0|
0y
0w
1$!
1"!
1~
1!!
0}
0z
0'!
1%!
1#!
0$!
0"!
0~
1*!
1(!
1&!
1'!
0%!
0#!
1+!
1)!
0*!
0(!
0&!
1,!
0+!
0)!
0,!
#19000
0#
0?
0@
1/
#19500
1#
1?
1@
0/
0s"
10!
0C
1A
11!
1F
1D
1B
13!
0H
1G
1E
14!
0E
0B
1K
1I
15!
0N
1L
1Q
1O
0T
1R
1W
1U
0Z
1X
1]
1[
0`
1^
1c
1a
0f
1d
1i
1g
0l
1j
1o
1m
0r
1p
1u
1s
0x
1v
1|
1y
0!!
1}
1$!
1"!
0'!
1%!
1*!
1(!
1+!
#20000
b1011001 !
b1111001 !
b1101001 !
b1100001 !
b1100101 !
b1100111 !
b1100110 !
b1100001 "
b1000001 "
b1010001 "
b1010101 "
b1010111 "
b1010110 "
1%
0#
0G!
1K!
1\!
1p!
0s!
1%"
0E!
1L!
1[!
0`!
0o!
1t!
1&"
19!
0?
0@
1/
#20500
1#
1?
1@
0/
1q"
16!
17!
00!
1H
0G
04!
1>
1.
01!
0K
0I
05!
03!
1N
0L
14!
1,!
1)!
1&!
1#!
1~
1z
1w
1t
1q
1n
1k
1h
1e
1b
1_
1\
1Y
1V
1S
1P
1E
1B
0Q
0O
15!
1T
0R
0P
0W
0U
0S
1Z
0X
0V
0]
0[
0Y
1`
0^
0\
0c
0a
0_
1f
0d
0b
0i
0g
0e
1l
0j
0h
0o
0m
0k
1r
0p
0n
0u
0s
0q
1x
0v
0t
0|
0y
0w
1!!
0}
0z
0$!
0"!
0~
1'!
0%!
0#!
0*!
0(!
0&!
0+!
0)!
0,!
1B"
1M!
0C!
1B!
16
1-
0Y!
0N!
0H!
1Z!
0S!
0I!
1]!
0T!
1^!
#21000
0#
0?
0@
1/
#21500
1#
1?
1@
0/
0q"
1r"
1s"
0H
1G
0F
0D
1C
0A
1K
1I
1H
0G
0E
1D
0B
0N
1L
1J
0K
0I
1E
1Q
1O
1M
1N
0L
0J
0T
1R
1P
0Q
0O
0M
1W
1U
1S
1T
0R
0P
0Z
1X
1V
0W
0U
0S
1]
1[
1Y
1Z
0X
0V
0`
1^
1\
0]
0[
0Y
1c
1a
1_
1`
0^
0\
0f
1d
1b
0c
0a
0_
1i
1g
1e
1f
0d
0b
0l
1j
1h
0i
0g
0e
1o
1m
1k
1l
0j
0h
0r
1p
1n
0o
0m
0k
1u
1s
1q
1r
0p
0n
0x
1v
1t
0u
0s
0q
1|
1y
1w
1x
0v
0t
0!!
1}
1z
0|
0y
0w
1$!
1"!
1~
1!!
0}
0z
0'!
1%!
1#!
0$!
0"!
0~
1*!
1(!
1&!
1'!
0%!
0#!
1+!
1)!
0*!
0(!
0&!
1,!
0+!
0)!
0,!
#22000
0#
0?
0@
1/
#22500
1#
1?
1@
0/
0s"
0C
1A
0D
1B
0E
#23000
0#
0?
0@
1/
